inputs=50 keys=835 outputs=22 gates=2517
iteration: 1; vars: 14893; clauses: 22833; decisions: 62809
iteration: 2; vars: 19261; clauses: 36483; decisions: 102663
iteration: 3; vars: 23629; clauses: 35659; decisions: 289524
iteration: 4; vars: 27997; clauses: 41283; decisions: 417352
iteration: 5; vars: 32365; clauses: 46137; decisions: 680810
iteration: 6; vars: 36733; clauses: 47666; decisions: 938131
iteration: 7; vars: 41101; clauses: 61064; decisions: 1132545
iteration: 8; vars: 45469; clauses: 74300; decisions: 1299600
iteration: 9; vars: 49837; clauses: 87544; decisions: 1553115
iteration: 10; vars: 54205; clauses: 60586; decisions: 1653416
iteration: 11; vars: 58573; clauses: 73915; decisions: 1895418
iteration: 12; vars: 62941; clauses: 67210; decisions: 2236839
iteration: 13; vars: 67309; clauses: 70107; decisions: 2602522
iteration: 14; vars: 71677; clauses: 83051; decisions: 3158039
iteration: 15; vars: 76045; clauses: 78082; decisions: 4129169
iteration: 16; vars: 80413; clauses: 90974; decisions: 4355171
iteration: 17; vars: 84781; clauses: 82637; decisions: 5064203
iteration: 18; vars: 89149; clauses: 95400; decisions: 5583826
iteration: 19; vars: 93517; clauses: 108359; decisions: 5908859
iteration: 20; vars: 97885; clauses: 121371; decisions: 6289160
iteration: 21; vars: 102253; clauses: 134465; decisions: 6458953
iteration: 22; vars: 106621; clauses: 98750; decisions: 6820456
iteration: 23; vars: 110989; clauses: 111932; decisions: 7463153
iteration: 24; vars: 115357; clauses: 125175; decisions: 8162314
iteration: 25; vars: 119725; clauses: 138195; decisions: 8196793
iteration: 26; vars: 124093; clauses: 151225; decisions: 8388445
iteration: 27; vars: 128461; clauses: 164397; decisions: 8531201
iteration: 28; vars: 132829; clauses: 120581; decisions: 9386749
iteration: 29; vars: 137197; clauses: 133435; decisions: 9567177
iteration: 30; vars: 141565; clauses: 146391; decisions: 9689026
iteration: 31; vars: 145933; clauses: 159234; decisions: 10412795
iteration: 32; vars: 150301; clauses: 172164; decisions: 10610245
iteration: 33; vars: 154669; clauses: 185059; decisions: 10931150
iteration: 34; vars: 159037; clauses: 198091; decisions: 11002293
iteration: 35; vars: 163405; clauses: 211100; decisions: 11186536
iteration: 36; vars: 167773; clauses: 90605; decisions: 11366635
iteration: 37; vars: 172141; clauses: 103196; decisions: 11710046
iteration: 38; vars: 176509; clauses: 52560; decisions: 12175526
iteration: 39; vars: 180877; clauses: 51039; decisions: 12270658
iteration: 40; vars: 185245; clauses: 63636; decisions: 12312295
iteration: 41; vars: 189613; clauses: 56708; decisions: 12424713
iteration: 42; vars: 193981; clauses: 69172; decisions: 12558766
iteration: 43; vars: 198349; clauses: 81802; decisions: 12571389
iteration: 44; vars: 202717; clauses: 56841; decisions: 12823094
iteration: 45; vars: 207085; clauses: 57209; decisions: 13087312
iteration: 46; vars: 211453; clauses: 69676; decisions: 13307291
iteration: 47; vars: 215821; clauses: 82342; decisions: 13311541
iteration: 48; vars: 220189; clauses: 94998; decisions: 13342153
iteration: 49; vars: 224557; clauses: 65138; decisions: 13372223
iteration: 50; vars: 228925; clauses: 77572; decisions: 13395374
iteration: 51; vars: 233293; clauses: 90048; decisions: 13542553
iteration: 52; vars: 237661; clauses: 102640; decisions: 13606450
iteration: 53; vars: 242029; clauses: 115010; decisions: 13644252
iteration: 54; vars: 246397; clauses: 34113; decisions: 13686985
iteration: 55; vars: 250765; clauses: 46157; decisions: 13727121
iteration: 56; vars: 255133; clauses: 58355; decisions: 13781677
iteration: 57; vars: 259501; clauses: 32298; decisions: 13822612
iteration: 58; vars: 263869; clauses: 44304; decisions: 13827755
iteration: 59; vars: 268237; clauses: 56346; decisions: 13853577
iteration: 60; vars: 272605; clauses: 30724; decisions: 13886317
iteration: 61; vars: 276973; clauses: 42457; decisions: 13915998
iteration: 62; vars: 281341; clauses: 54319; decisions: 13920729
iteration: 63; vars: 285709; clauses: 28228; decisions: 13934415
iteration: 64; vars: 290077; clauses: 40086; decisions: 13956332
iteration: 65; vars: 294445; clauses: 51952; decisions: 13960356
iteration: 66; vars: 298813; clauses: 25922; decisions: 13978792
iteration: 67; vars: 303181; clauses: 37712; decisions: 13982714
iteration: 68; vars: 307549; clauses: 24511; decisions: 14023865
iteration: 69; vars: 311917; clauses: 36181; decisions: 14024709
iteration: 70; vars: 316285; clauses: 24187; decisions: 14080102
iteration: 71; vars: 320653; clauses: 35719; decisions: 14085765
iteration: 72; vars: 325021; clauses: 24028; decisions: 14086309
iteration: 73; vars: 329389; clauses: 35628; decisions: 14088215
iteration: 74; vars: 333757; clauses: 23751; decisions: 14093474
iteration: 75; vars: 338125; clauses: 35386; decisions: 14095797
iteration: 76; vars: 342493; clauses: 23557; decisions: 14099615
iteration: 77; vars: 346861; clauses: 35029; decisions: 14126345
iteration: 78; vars: 351229; clauses: 24002; decisions: 14136348
iteration: 79; vars: 355597; clauses: 35690; decisions: 14153954
iteration: 80; vars: 359965; clauses: 23613; decisions: 14156592
iteration: 81; vars: 364333; clauses: 35211; decisions: 14157866
iteration: 82; vars: 368701; clauses: 24615; decisions: 14164325
iteration: 83; vars: 373069; clauses: 36377; decisions: 14195676
iteration: 84; vars: 377437; clauses: 22948; decisions: 14224004
iteration: 85; vars: 381805; clauses: 34320; decisions: 14227823
iteration: 86; vars: 386173; clauses: 19943; decisions: 14233716
iteration: 87; vars: 390541; clauses: 31399; decisions: 14252838
iteration: 88; vars: 394909; clauses: 20787; decisions: 14258767
iteration: 89; vars: 399277; clauses: 32367; decisions: 14270821
iteration: 90; vars: 403645; clauses: 20724; decisions: 14279184
iteration: 91; vars: 408013; clauses: 32040; decisions: 14284993
iteration: 92; vars: 412381; clauses: 20833; decisions: 14294646
iteration: 93; vars: 416749; clauses: 32495; decisions: 14296680
iteration: 94; vars: 421117; clauses: 21010; decisions: 14301789
iteration: 95; vars: 425485; clauses: 32320; decisions: 14303990
iteration: 96; vars: 429853; clauses: 20422; decisions: 14305711
iteration: 97; vars: 434221; clauses: 31780; decisions: 14319245
iteration: 98; vars: 438589; clauses: 20305; decisions: 14346709
iteration: 99; vars: 442957; clauses: 31739; decisions: 14349197
iteration: 100; vars: 447325; clauses: 19632; decisions: 14353634
iteration: 101; vars: 451693; clauses: 31385; decisions: 14375463
iteration: 102; vars: 456061; clauses: 19604; decisions: 14384602
iteration: 103; vars: 460429; clauses: 30920; decisions: 14391770
iteration: 104; vars: 464797; clauses: 19652; decisions: 14405307
iteration: 105; vars: 469165; clauses: 31102; decisions: 14426871
iteration: 106; vars: 473533; clauses: 19559; decisions: 14438484
iteration: 107; vars: 477901; clauses: 31211; decisions: 14441515
iteration: 108; vars: 482269; clauses: 19736; decisions: 14450330
iteration: 109; vars: 486637; clauses: 31076; decisions: 14469143
iteration: 110; vars: 491005; clauses: 18145; decisions: 14494220
iteration: 111; vars: 495373; clauses: 29669; decisions: 14513370
iteration: 112; vars: 499741; clauses: 17504; decisions: 14532105
iteration: 113; vars: 504109; clauses: 28712; decisions: 14548941
iteration: 114; vars: 508477; clauses: 17262; decisions: 14583663
iteration: 115; vars: 512845; clauses: 28642; decisions: 14626066
iteration: 116; vars: 517213; clauses: 17862; decisions: 14690923
iteration: 117; vars: 521581; clauses: 29200; decisions: 14707089
iteration: 118; vars: 525949; clauses: 17901; decisions: 14750775
iteration: 119; vars: 530317; clauses: 29423; decisions: 14804164
iteration: 120; vars: 534685; clauses: 16921; decisions: 14823931
iteration: 121; vars: 539053; clauses: 28107; decisions: 14838878
finished solver loop. fail_count = 0
key=1110100100110011010111001000001000111001100100010010111010000111011001010110000110110011110101011010011000110010010001100000111000001010010111011110000111110100010111011000001010010100101110101010010000001111100011110001010000011001111000000011000111100100100010100001111100001101000011111000000110111110110010001100101001001001111001011111100100111000000111011001110101000001001000001010110000001011001111111010010011101010011010001010011001000001010110110001101010001001010110010111110001110100010011110010010110111110001101100000100010110001001111010111000101101101101101101110100001000000000001011001010001110111001010111001000100100111011011101010000111010001001011110100000000101011011000000101000111100011101001101110111100100100111100001110001110011011010110010001101100100001000010100000100000011011001101000110011010011101110
iteration=121; backbones_count=0; cube_count=1743390; cpu_time=95.9597; maxrss=76.0352
87.85user 8.11system 1:36.03elapsed 99%CPU (0avgtext+0avgdata 77860maxresident)k
1032inputs+48outputs (3major+525368minor)pagefaults 0swaps
